graph G {
"Alice"--"Bob"
"Alice"--"Carl"
"Alice"--"David"
"Alice"--"Ernst"
"Alice"--"Frank"
"Bob"--"Gail"
"Carl"--"David"
"Carl"--"Frank"
"Ernst"--"Frank"
"Gail"--"Harry"
"Gail"--"Jen"
"Gail"--"Irene"
"Harry"--"Jen"
"Harry"--"Irene"
"Jen"--"Irene"
}